<?xml version="1.0" encoding="UTF-8"?>
<svg xmlns="http://www.w3.org/2000/svg" width="20" height="20" viewBox="0 0 20 20">
  <title>
    clear
  </title>
  <path fill="#8e8ca3" d="M10 0a10 10 0 1 0 10 10A10 10 0 0 0 10 0zm5.66 14.24l-1.41 1.41L10 11.41l-4.24 4.25-1.42-1.42L8.59 10 4.34 5.76l1.42-1.42L10 8.59l4.24-4.24 1.41 1.41L11.41 10z"/>
</svg>
